[
    {
        "Tag": "ProductFlag",
        "Table": "op_product_flag",
        "Field":[{"Name":    "ProductId",
                  "Type":    "str",
                  "Field":   "ProductId",
                  "Comment": "网贷产品Id"},
		 {"Name":    "CheckState",
                  "Type":    "int",
                  "Field":   "CheckState",
                  "Comment": "审核状态(0-未审核, 1-通过, -1-未通过)"},
		 {"Name":    "OpenState",
                  "Type":    "int",
                  "Field":   "OpenState",
                  "Comment": "开放状态(0-关闭, 1-开放)"},
                 {"Name":    "LoginFlag",
                  "Type":    "int",
                  "Field":   "LoginFlag",
                  "Comment": "开放注册(0-否, 1-是)"},
                 {"Name":    "SearchFlag",
                  "Type":    "str",
                  "Field":   "SearchFlag",
                  "Comment": "开放搜索(0-否, 1-是)"},
                 {"Name":    "RankFlag",
                  "Type":    "str",
                  "Field":   "RankFlag",
                  "Comment": "开放榜单(0-否, 1-是)"},
		 {"Name":    "CounterFlag",
                  "Type":    "int",
                  "Field":   "CounterFlag",
                  "Comment": "开放利率点评(0-否, 1-是)"},
		 {"Name":    "SurveyFlag",
                  "Type":    "int",
                  "Field":   "SurveyFlag",
                  "Comment": "开放问卷点评(0-否, 1-是)"},
		 {"Name":    "VoteFlag",
                  "Type":    "int",
                  "Field":   "VoteFlag",
                  "Comment": "开放投票点评(0-否, 1-是)"},
                 {"Name":    "Disabled",
                  "Type":    "int",
                  "Field":   "Disabled",
                  "Comment": "无效化(0-有效记录, 1-无效记录)"}
        ],
        "Comment": "网贷产品权限表单(运维使用)"
    },
    {
        "Tag": "KeywordRank",
        "Table": "op_keyword_rank",
        "Field":[{"Name":    "Rank",
                  "Type":    "int",
                  "Field":   "Rank",
                  "Comment": "排位"},
                 {"Name":    "Keyword",
                  "Type":    "str",
                  "Field":   "Keyword",
                  "Comment": "关键词"},
                 {"Name":    "Time",
                  "Type":    "str",
                  "Field":   "TimeStamp",
                  "Comment": "日期戳(格式: 2018-10-29 10:10:10) 同一时刻更新"},
                 {"Name":    "Disabled",
                  "Type":    "int",
                  "Field":   "Disabled",
                  "Comment": "无效化(0-有效记录, 1-无效记录)"},
                 {"Name":    "Latest",
                  "Type":    "int",
                  "Field":   "Latest",
                  "Comment": "是否为最新记录(0-非最新, 1-最新)"}
        ],
        "Comment": "热搜词榜单数据表单(运维使用)"
    }
]
