[
    {
        "Tag": "ProductStats",
        "Table": "da_product_stats",
        "Field":[{"Name":    "ProductId",
	          "Type":    "str",
	          "Field":   "ProductId",
		  "Comment": "网贷产品编码"},
		 {"Name":    "TotalCounter",
                  "Type":    "int",
                  "Field":   "TotalCounterComment",
                  "Comment": "利率点评总数"},
		 {"Name":    "TotalSurvey",
                  "Type":    "int",
                  "Field":   "TotalSurveyComment",
                  "Comment": "问卷点评总数"},
		 {"Name":    "TotalVote",
                  "Type":    "int",
                  "Field":   "TotalVoteComment",
                  "Comment": "投票点评总数"},
		 {"Name":    "TotalUnion",
                  "Type":    "int",
                  "Field":   "TotalUnionComment",
                  "Comment": "交互数(三种点评合集)"},
		 {"Name":    "Air",
                  "Type":    "float",
                  "Field":   "MeanAir",
                  "Comment": "平均年息"},
                 {"Name":    "Mir",
                  "Type":    "float",
                  "Field":   "MeanMir",
                  "Comment": "平均月息"},
		 {"Name":    "Dir",
                  "Type":    "float",
                  "Field":   "MeanDir",
                  "Comment": "平均日息"},
		 {"Name":    "Time",
                  "Type":    "str",
                  "Field":   "TimeStamp",
                  "Comment": "日期戳(格式: 2018-10-29 10:10:10) 同一时刻更新"},
		 {"Name":    "Disabled",
                  "Type":    "int",
                  "Field":   "Disabled",
                  "Comment": "无效化(0-有效记录, 1-无效记录)"},
		 {"Name":    "Latest",
                  "Type":    "int",
                  "Field":   "Latest",
                  "Comment": "是否为最新记录(0-非最新, 1-最新)"} 
	],
        "Comment": "网贷产品统计表单" 
    }
]
